[
     {
          "campo01": "002",
          "campo02": "002",
          "campo03": "09:44:30",
          "campo04": "2020:04:21",
          "campo05": "001",
          "campo06": "800000",
          "campo07": "010101",
          "campo08": "02",
          "campo09": "E",
          "campo10": "00",
          "campo11": "0000",
          "campo12": "020",
          "campo13": "Operacion exitosa",
          "campo14": "604",
          "campo15": "23FB04B223FB04B223FB04B223FB04B2",
          "campo16": "56A0E156A0E13E3E5656A0E13EA0E13E",
          "campo17": "4EA070AFF489452C090D246700AF0F08",
          "campo18": "09:44:30",
          "campo19": "Evento 01"

     },
     {
          
          "campo01": "002",
          "campo02": "007",
          "campo03": "10:01:19",
          "campo04": "2020:04:20",
          "campo05": "002",
          "campo06": "490000",
          "campo07": "120422",
          "campo08": "04",
          "campo09": "E",
          "campo10": "00",
          "campo11": "0000",
          "campo12": "032",
          "campo13": "Operacion exitosa",
          "campo14": "604",
          "campo15": "4AF69EE6F214B96CC29E6F214B4B96CC",
          "campo16": "E6F214B96CC29E56A0E0E13E3E56513E",
          "campo17": "8944AF69EE6F214B9246700AF0F21408",
          "campo18": "10:01:19",
          "campo19": "Evento 02"
     },
     {
          
          "campo01": "002",
          "campo02": "009",
          "campo03": "19:26:00",
          "campo04": "2020:04:19",
          "campo05": "009",
          "campo06": "800000",
          "campo07": "050555",
          "campo08": "15",
          "campo09": "E",
          "campo10": "80",
          "campo11": "8001",
          "campo12": "020",
          "campo13": "Timeout en Banco Repector",
          "campo14": "604",
          "campo15": "F088F4214CFB04B49B22FB0423FB04B2",
          "campo16": "14CF11BA60E4416A0E813E83E5134E8A",
          "campo17": "488F4214EA070AFF48452C06990F0F08",
          "campo18": "19:26:00",
          "campo19": "Evento 05"
     },
     {
          
          "campo01": "009",
          "campo02": "002",
          "campo03": "08:44:30",
          "campo04": "2020:04:18",
          "campo05": "002",
          "campo06": "490000",
          "campo07": "022414",
          "campo08": "52",
          "campo09": "R",
          "campo10": "00",
          "campo11": "0000",
          "campo12": "040",
          "campo13": "Operacion exitosa",
          "campo14": "840",
          "campo15": "48D55A904CF4F550190BEB23FB04B223",
          "campo16": "E122568D0F8AB40599C04449FBBD0DFD",
          "campo17": "9FBBD0AFF48955AC090DBF040CF89AAE",
          "campo18": "08:44:30",
          "campo19": "Evento 08"
     },
     {
          "campo01": "018",
          "campo02": "002",
          "campo03": "18:11:30",
          "campo04": "2020:04:17",
          "campo05": "005",
          "campo06": "490000",
          "campo07": "880151",
          "campo08": "51",
          "campo09": "R",
          "campo10": "40",
          "campo11": "4002",
          "campo12": "445",
          "campo13": "Latencia en servidor de Novatronic",
          "campo14": "840",
          "campo15": "0BEB23FB4023FBA90BEB23F55190BEB3",
          "campo16": "78E1B22568D0F8AB40599C0482320DFD",
          "campo17": "005492261B29FBD0AFF489A09DBF04AE",
          "campo18": "18:11:30",
          "campo19": "Evento 04"
     },
     {
          "campo01": "009",
          "campo02": "002",
          "campo03": "13:11:30",
          "campo04": "2020:04:16",
          "campo05": "005",
          "campo06": "490000",
          "campo07": "880151",
          "campo08": "51",
          "campo09": "R",
          "campo10": "40",
          "campo11": "4002",
          "campo12": "445",
          "campo13": "Latencia en servidor de Novatronic",
          "campo14": "604",
          "campo15": "0BEB23FB4023FBA90BEB23F55190BEB3",
          "campo16": "78E1B22568D0F8AB40599C0482320DFD",
          "campo17": "005492261B29FBD0AFF489A09DBF04AE",
          "campo18": "13:11:30",
          "campo19": "Evento 04"
     },
     {
          "campo01": "002",
          "campo02": "023",
          "campo03": "08:11:30",
          "campo04": "2020:04:15",
          "campo05": "005",
          "campo06": "490000",
          "campo07": "880151",
          "campo08": "51",
          "campo09": "E",
          "campo10": "40",
          "campo11": "4002",
          "campo12": "445",
          "campo13": "Latencia en servidor de Novatronic",
          "campo14": "840",
          "campo15": "0BEB23FB4023FBA90BEB23F55190BEB3",
          "campo16": "78E1B22568D0F8AB40599C0482320DFD",
          "campo17": "005492261B29FBD0AFF489A09DBF04AE",
          "campo18": "08:11:30",
          "campo19": "Evento 04"
     },
          {
          "campo01": "002",
          "campo02": "002",
          "campo03": "09:44:30",
          "campo04": "2020:04:21",
          "campo05": "001",
          "campo06": "800000",
          "campo07": "010101",
          "campo08": "02",
          "campo09": "E",
          "campo10": "00",
          "campo11": "0000",
          "campo12": "020",
          "campo13": "Operacion exitosa",
          "campo14": "604",
          "campo15": "23FB04B223FB04B223FB04B223FB04B2",
          "campo16": "56A0E156A0E13E3E5656A0E13EA0E13E",
          "campo17": "4EA070AFF489452C090D246700AF0F08",
          "campo18": "09:44:30",
          "campo19": "Evento 01"

     },
     {
          
          "campo01": "002",
          "campo02": "007",
          "campo03": "10:01:19",
          "campo04": "2020:04:20",
          "campo05": "002",
          "campo06": "490000",
          "campo07": "120422",
          "campo08": "04",
          "campo09": "E",
          "campo10": "00",
          "campo11": "0000",
          "campo12": "032",
          "campo13": "Operacion exitosa",
          "campo14": "604",
          "campo15": "4AF69EE6F214B96CC29E6F214B4B96CC",
          "campo16": "E6F214B96CC29E56A0E0E13E3E56513E",
          "campo17": "8944AF69EE6F214B9246700AF0F21408",
          "campo18": "10:01:19",
          "campo19": "Evento 02"
     },
     {
          
          "campo01": "002",
          "campo02": "009",
          "campo03": "19:26:00",
          "campo04": "2020:04:19",
          "campo05": "009",
          "campo06": "800000",
          "campo07": "050555",
          "campo08": "15",
          "campo09": "E",
          "campo10": "80",
          "campo11": "8001",
          "campo12": "020",
          "campo13": "Timeout en Banco Repector",
          "campo14": "604",
          "campo15": "F088F4214CFB04B49B22FB0423FB04B2",
          "campo16": "14CF11BA60E4416A0E813E83E5134E8A",
          "campo17": "488F4214EA070AFF48452C06990F0F08",
          "campo18": "19:26:00",
          "campo19": "Evento 05"
     },
     {
          
          "campo01": "009",
          "campo02": "002",
          "campo03": "08:44:30",
          "campo04": "2020:04:18",
          "campo05": "002",
          "campo06": "490000",
          "campo07": "022414",
          "campo08": "52",
          "campo09": "R",
          "campo10": "00",
          "campo11": "0000",
          "campo12": "040",
          "campo13": "Operacion exitosa",
          "campo14": "840",
          "campo15": "48D55A904CF4F550190BEB23FB04B223",
          "campo16": "E122568D0F8AB40599C04449FBBD0DFD",
          "campo17": "9FBBD0AFF48955AC090DBF040CF89AAE",
          "campo18": "08:44:30",
          "campo19": "Evento 08"
     },
     {
          "campo01": "018",
          "campo02": "002",
          "campo03": "18:11:30",
          "campo04": "2020:04:17",
          "campo05": "005",
          "campo06": "490000",
          "campo07": "880151",
          "campo08": "51",
          "campo09": "R",
          "campo10": "40",
          "campo11": "4002",
          "campo12": "445",
          "campo13": "Latencia en servidor de Novatronic",
          "campo14": "840",
          "campo15": "0BEB23FB4023FBA90BEB23F55190BEB3",
          "campo16": "78E1B22568D0F8AB40599C0482320DFD",
          "campo17": "005492261B29FBD0AFF489A09DBF04AE",
          "campo18": "18:11:30",
          "campo19": "Evento 04"
     },
     {
          "campo01": "009",
          "campo02": "002",
          "campo03": "13:11:30",
          "campo04": "2020:04:16",
          "campo05": "005",
          "campo06": "490000",
          "campo07": "880151",
          "campo08": "51",
          "campo09": "R",
          "campo10": "40",
          "campo11": "4002",
          "campo12": "445",
          "campo13": "Latencia en servidor de Novatronic",
          "campo14": "604",
          "campo15": "0BEB23FB4023FBA90BEB23F55190BEB3",
          "campo16": "78E1B22568D0F8AB40599C0482320DFD",
          "campo17": "005492261B29FBD0AFF489A09DBF04AE",
          "campo18": "13:11:30",
          "campo19": "Evento 04"
     },
     {
          "campo01": "002",
          "campo02": "023",
          "campo03": "08:11:30",
          "campo04": "2020:04:15",
          "campo05": "005",
          "campo06": "490000",
          "campo07": "880151",
          "campo08": "51",
          "campo09": "E",
          "campo10": "40",
          "campo11": "4002",
          "campo12": "445",
          "campo13": "Latencia en servidor de Novatronic",
          "campo14": "840",
          "campo15": "0BEB23FB4023FBA90BEB23F55190BEB3",
          "campo16": "78E1B22568D0F8AB40599C0482320DFD",
          "campo17": "005492261B29FBD0AFF489A09DBF04AE",
          "campo18": "08:11:30",
          "campo19": "Evento 04"
     },
          {
          "campo01": "002",
          "campo02": "002",
          "campo03": "09:44:30",
          "campo04": "2020:04:21",
          "campo05": "001",
          "campo06": "800000",
          "campo07": "010101",
          "campo08": "02",
          "campo09": "E",
          "campo10": "00",
          "campo11": "0000",
          "campo12": "020",
          "campo13": "Operacion exitosa",
          "campo14": "604",
          "campo15": "23FB04B223FB04B223FB04B223FB04B2",
          "campo16": "56A0E156A0E13E3E5656A0E13EA0E13E",
          "campo17": "4EA070AFF489452C090D246700AF0F08",
          "campo18": "09:44:30",
          "campo19": "Evento 01"

     },
     {
          
          "campo01": "002",
          "campo02": "007",
          "campo03": "10:01:19",
          "campo04": "2020:04:20",
          "campo05": "002",
          "campo06": "490000",
          "campo07": "120422",
          "campo08": "04",
          "campo09": "E",
          "campo10": "00",
          "campo11": "0000",
          "campo12": "032",
          "campo13": "Operacion exitosa",
          "campo14": "604",
          "campo15": "4AF69EE6F214B96CC29E6F214B4B96CC",
          "campo16": "E6F214B96CC29E56A0E0E13E3E56513E",
          "campo17": "8944AF69EE6F214B9246700AF0F21408",
          "campo18": "10:01:19",
          "campo19": "Evento 02"
     },
     {
          
          "campo01": "002",
          "campo02": "009",
          "campo03": "19:26:00",
          "campo04": "2020:04:19",
          "campo05": "009",
          "campo06": "800000",
          "campo07": "050555",
          "campo08": "15",
          "campo09": "E",
          "campo10": "80",
          "campo11": "8001",
          "campo12": "020",
          "campo13": "Timeout en Banco Repector",
          "campo14": "604",
          "campo15": "F088F4214CFB04B49B22FB0423FB04B2",
          "campo16": "14CF11BA60E4416A0E813E83E5134E8A",
          "campo17": "488F4214EA070AFF48452C06990F0F08",
          "campo18": "19:26:00",
          "campo19": "Evento 05"
     },
     {
          
          "campo01": "009",
          "campo02": "002",
          "campo03": "08:44:30",
          "campo04": "2020:04:18",
          "campo05": "002",
          "campo06": "490000",
          "campo07": "022414",
          "campo08": "52",
          "campo09": "R",
          "campo10": "00",
          "campo11": "0000",
          "campo12": "040",
          "campo13": "Operacion exitosa",
          "campo14": "840",
          "campo15": "48D55A904CF4F550190BEB23FB04B223",
          "campo16": "E122568D0F8AB40599C04449FBBD0DFD",
          "campo17": "9FBBD0AFF48955AC090DBF040CF89AAE",
          "campo18": "08:44:30",
          "campo19": "Evento 08"
     },
     {
          "campo01": "018",
          "campo02": "002",
          "campo03": "18:11:30",
          "campo04": "2020:04:17",
          "campo05": "005",
          "campo06": "490000",
          "campo07": "880151",
          "campo08": "51",
          "campo09": "R",
          "campo10": "40",
          "campo11": "4002",
          "campo12": "445",
          "campo13": "Latencia en servidor de Novatronic",
          "campo14": "840",
          "campo15": "0BEB23FB4023FBA90BEB23F55190BEB3",
          "campo16": "78E1B22568D0F8AB40599C0482320DFD",
          "campo17": "005492261B29FBD0AFF489A09DBF04AE",
          "campo18": "18:11:30",
          "campo19": "Evento 04"
     },
     {
          "campo01": "009",
          "campo02": "002",
          "campo03": "13:11:30",
          "campo04": "2020:04:16",
          "campo05": "005",
          "campo06": "490000",
          "campo07": "880151",
          "campo08": "51",
          "campo09": "R",
          "campo10": "40",
          "campo11": "4002",
          "campo12": "445",
          "campo13": "Latencia en servidor de Novatronic",
          "campo14": "604",
          "campo15": "0BEB23FB4023FBA90BEB23F55190BEB3",
          "campo16": "78E1B22568D0F8AB40599C0482320DFD",
          "campo17": "005492261B29FBD0AFF489A09DBF04AE",
          "campo18": "13:11:30",
          "campo19": "Evento 04"
     },
     {
          "campo01": "002",
          "campo02": "023",
          "campo03": "08:11:30",
          "campo04": "2020:04:15",
          "campo05": "005",
          "campo06": "490000",
          "campo07": "880151",
          "campo08": "51",
          "campo09": "E",
          "campo10": "40",
          "campo11": "4002",
          "campo12": "445",
          "campo13": "Latencia en servidor de Novatronic",
          "campo14": "840",
          "campo15": "0BEB23FB4023FBA90BEB23F55190BEB3",
          "campo16": "78E1B22568D0F8AB40599C0482320DFD",
          "campo17": "005492261B29FBD0AFF489A09DBF04AE",
          "campo18": "08:11:30",
          "campo19": "Evento 04"
     },
          {
          "campo01": "002",
          "campo02": "002",
          "campo03": "09:44:30",
          "campo04": "2020:04:21",
          "campo05": "001",
          "campo06": "800000",
          "campo07": "010101",
          "campo08": "02",
          "campo09": "E",
          "campo10": "00",
          "campo11": "0000",
          "campo12": "020",
          "campo13": "Operacion exitosa",
          "campo14": "604",
          "campo15": "23FB04B223FB04B223FB04B223FB04B2",
          "campo16": "56A0E156A0E13E3E5656A0E13EA0E13E",
          "campo17": "4EA070AFF489452C090D246700AF0F08",
          "campo18": "09:44:30",
          "campo19": "Evento 01"

     },
     {
          
          "campo01": "002",
          "campo02": "007",
          "campo03": "10:01:19",
          "campo04": "2020:04:20",
          "campo05": "002",
          "campo06": "490000",
          "campo07": "120422",
          "campo08": "04",
          "campo09": "E",
          "campo10": "00",
          "campo11": "0000",
          "campo12": "032",
          "campo13": "Operacion exitosa",
          "campo14": "604",
          "campo15": "4AF69EE6F214B96CC29E6F214B4B96CC",
          "campo16": "E6F214B96CC29E56A0E0E13E3E56513E",
          "campo17": "8944AF69EE6F214B9246700AF0F21408",
          "campo18": "10:01:19",
          "campo19": "Evento 02"
     },
     {
          
          "campo01": "002",
          "campo02": "009",
          "campo03": "19:26:00",
          "campo04": "2020:04:19",
          "campo05": "009",
          "campo06": "800000",
          "campo07": "050555",
          "campo08": "15",
          "campo09": "E",
          "campo10": "80",
          "campo11": "8001",
          "campo12": "020",
          "campo13": "Timeout en Banco Repector",
          "campo14": "604",
          "campo15": "F088F4214CFB04B49B22FB0423FB04B2",
          "campo16": "14CF11BA60E4416A0E813E83E5134E8A",
          "campo17": "488F4214EA070AFF48452C06990F0F08",
          "campo18": "19:26:00",
          "campo19": "Evento 05"
     },
     {
          
          "campo01": "009",
          "campo02": "002",
          "campo03": "08:44:30",
          "campo04": "2020:04:18",
          "campo05": "002",
          "campo06": "490000",
          "campo07": "022414",
          "campo08": "52",
          "campo09": "R",
          "campo10": "00",
          "campo11": "0000",
          "campo12": "040",
          "campo13": "Operacion exitosa",
          "campo14": "840",
          "campo15": "48D55A904CF4F550190BEB23FB04B223",
          "campo16": "E122568D0F8AB40599C04449FBBD0DFD",
          "campo17": "9FBBD0AFF48955AC090DBF040CF89AAE",
          "campo18": "08:44:30",
          "campo19": "Evento 08"
     },
     {
          "campo01": "018",
          "campo02": "002",
          "campo03": "18:11:30",
          "campo04": "2020:04:17",
          "campo05": "005",
          "campo06": "490000",
          "campo07": "880151",
          "campo08": "51",
          "campo09": "R",
          "campo10": "40",
          "campo11": "4002",
          "campo12": "445",
          "campo13": "Latencia en servidor de Novatronic",
          "campo14": "840",
          "campo15": "0BEB23FB4023FBA90BEB23F55190BEB3",
          "campo16": "78E1B22568D0F8AB40599C0482320DFD",
          "campo17": "005492261B29FBD0AFF489A09DBF04AE",
          "campo18": "18:11:30",
          "campo19": "Evento 04"
     },
     {
          "campo01": "009",
          "campo02": "002",
          "campo03": "13:11:30",
          "campo04": "2020:04:16",
          "campo05": "005",
          "campo06": "490000",
          "campo07": "880151",
          "campo08": "51",
          "campo09": "R",
          "campo10": "40",
          "campo11": "4002",
          "campo12": "445",
          "campo13": "Latencia en servidor de Novatronic",
          "campo14": "604",
          "campo15": "0BEB23FB4023FBA90BEB23F55190BEB3",
          "campo16": "78E1B22568D0F8AB40599C0482320DFD",
          "campo17": "005492261B29FBD0AFF489A09DBF04AE",
          "campo18": "13:11:30",
          "campo19": "Evento 04"
     },
     {
          "campo01": "002",
          "campo02": "023",
          "campo03": "08:11:30",
          "campo04": "2020:04:15",
          "campo05": "005",
          "campo06": "490000",
          "campo07": "880151",
          "campo08": "51",
          "campo09": "E",
          "campo10": "40",
          "campo11": "4002",
          "campo12": "445",
          "campo13": "Latencia en servidor de Novatronic",
          "campo14": "840",
          "campo15": "0BEB23FB4023FBA90BEB23F55190BEB3",
          "campo16": "78E1B22568D0F8AB40599C0482320DFD",
          "campo17": "005492261B29FBD0AFF489A09DBF04AE",
          "campo18": "08:11:30",
          "campo19": "Evento 04"
     },
          {
          "campo01": "002",
          "campo02": "002",
          "campo03": "09:44:30",
          "campo04": "2020:04:21",
          "campo05": "001",
          "campo06": "800000",
          "campo07": "010101",
          "campo08": "02",
          "campo09": "E",
          "campo10": "00",
          "campo11": "0000",
          "campo12": "020",
          "campo13": "Operacion exitosa",
          "campo14": "604",
          "campo15": "23FB04B223FB04B223FB04B223FB04B2",
          "campo16": "56A0E156A0E13E3E5656A0E13EA0E13E",
          "campo17": "4EA070AFF489452C090D246700AF0F08",
          "campo18": "09:44:30",
          "campo19": "Evento 01"

     },
     {
          
          "campo01": "002",
          "campo02": "007",
          "campo03": "10:01:19",
          "campo04": "2020:04:20",
          "campo05": "002",
          "campo06": "490000",
          "campo07": "120422",
          "campo08": "04",
          "campo09": "E",
          "campo10": "00",
          "campo11": "0000",
          "campo12": "032",
          "campo13": "Operacion exitosa",
          "campo14": "604",
          "campo15": "4AF69EE6F214B96CC29E6F214B4B96CC",
          "campo16": "E6F214B96CC29E56A0E0E13E3E56513E",
          "campo17": "8944AF69EE6F214B9246700AF0F21408",
          "campo18": "10:01:19",
          "campo19": "Evento 02"
     },
     {
          
          "campo01": "002",
          "campo02": "009",
          "campo03": "19:26:00",
          "campo04": "2020:04:19",
          "campo05": "009",
          "campo06": "800000",
          "campo07": "050555",
          "campo08": "15",
          "campo09": "E",
          "campo10": "80",
          "campo11": "8001",
          "campo12": "020",
          "campo13": "Timeout en Banco Repector",
          "campo14": "604",
          "campo15": "F088F4214CFB04B49B22FB0423FB04B2",
          "campo16": "14CF11BA60E4416A0E813E83E5134E8A",
          "campo17": "488F4214EA070AFF48452C06990F0F08",
          "campo18": "19:26:00",
          "campo19": "Evento 05"
     },
     {
          
          "campo01": "009",
          "campo02": "002",
          "campo03": "08:44:30",
          "campo04": "2020:04:18",
          "campo05": "002",
          "campo06": "490000",
          "campo07": "022414",
          "campo08": "52",
          "campo09": "R",
          "campo10": "00",
          "campo11": "0000",
          "campo12": "040",
          "campo13": "Operacion exitosa",
          "campo14": "840",
          "campo15": "48D55A904CF4F550190BEB23FB04B223",
          "campo16": "E122568D0F8AB40599C04449FBBD0DFD",
          "campo17": "9FBBD0AFF48955AC090DBF040CF89AAE",
          "campo18": "08:44:30",
          "campo19": "Evento 08"
     },
     {
          "campo01": "018",
          "campo02": "002",
          "campo03": "18:11:30",
          "campo04": "2020:04:17",
          "campo05": "005",
          "campo06": "490000",
          "campo07": "880151",
          "campo08": "51",
          "campo09": "R",
          "campo10": "40",
          "campo11": "4002",
          "campo12": "445",
          "campo13": "Latencia en servidor de Novatronic",
          "campo14": "840",
          "campo15": "0BEB23FB4023FBA90BEB23F55190BEB3",
          "campo16": "78E1B22568D0F8AB40599C0482320DFD",
          "campo17": "005492261B29FBD0AFF489A09DBF04AE",
          "campo18": "18:11:30",
          "campo19": "Evento 04"
     },
     {
          "campo01": "009",
          "campo02": "002",
          "campo03": "13:11:30",
          "campo04": "2020:04:16",
          "campo05": "005",
          "campo06": "490000",
          "campo07": "880151",
          "campo08": "51",
          "campo09": "R",
          "campo10": "40",
          "campo11": "4002",
          "campo12": "445",
          "campo13": "Latencia en servidor de Novatronic",
          "campo14": "604",
          "campo15": "0BEB23FB4023FBA90BEB23F55190BEB3",
          "campo16": "78E1B22568D0F8AB40599C0482320DFD",
          "campo17": "005492261B29FBD0AFF489A09DBF04AE",
          "campo18": "13:11:30",
          "campo19": "Evento 04"
     },
     {
          "campo01": "002",
          "campo02": "023",
          "campo03": "08:11:30",
          "campo04": "2020:04:15",
          "campo05": "005",
          "campo06": "490000",
          "campo07": "880151",
          "campo08": "51",
          "campo09": "E",
          "campo10": "40",
          "campo11": "4002",
          "campo12": "445",
          "campo13": "Latencia en servidor de Novatronic",
          "campo14": "840",
          "campo15": "0BEB23FB4023FBA90BEB23F55190BEB3",
          "campo16": "78E1B22568D0F8AB40599C0482320DFD",
          "campo17": "005492261B29FBD0AFF489A09DBF04AE",
          "campo18": "08:11:30",
          "campo19": "Evento 04"
     },
          {
          "campo01": "002",
          "campo02": "002",
          "campo03": "09:44:30",
          "campo04": "2020:04:21",
          "campo05": "001",
          "campo06": "800000",
          "campo07": "010101",
          "campo08": "02",
          "campo09": "E",
          "campo10": "00",
          "campo11": "0000",
          "campo12": "020",
          "campo13": "Operacion exitosa",
          "campo14": "604",
          "campo15": "23FB04B223FB04B223FB04B223FB04B2",
          "campo16": "56A0E156A0E13E3E5656A0E13EA0E13E",
          "campo17": "4EA070AFF489452C090D246700AF0F08",
          "campo18": "09:44:30",
          "campo19": "Evento 01"

     },
     {
          
          "campo01": "002",
          "campo02": "007",
          "campo03": "10:01:19",
          "campo04": "2020:04:20",
          "campo05": "002",
          "campo06": "490000",
          "campo07": "120422",
          "campo08": "04",
          "campo09": "E",
          "campo10": "00",
          "campo11": "0000",
          "campo12": "032",
          "campo13": "Operacion exitosa",
          "campo14": "604",
          "campo15": "4AF69EE6F214B96CC29E6F214B4B96CC",
          "campo16": "E6F214B96CC29E56A0E0E13E3E56513E",
          "campo17": "8944AF69EE6F214B9246700AF0F21408",
          "campo18": "10:01:19",
          "campo19": "Evento 02"
     },
     {
          
          "campo01": "002",
          "campo02": "009",
          "campo03": "19:26:00",
          "campo04": "2020:04:19",
          "campo05": "009",
          "campo06": "800000",
          "campo07": "050555",
          "campo08": "15",
          "campo09": "E",
          "campo10": "80",
          "campo11": "8001",
          "campo12": "020",
          "campo13": "Timeout en Banco Repector",
          "campo14": "604",
          "campo15": "F088F4214CFB04B49B22FB0423FB04B2",
          "campo16": "14CF11BA60E4416A0E813E83E5134E8A",
          "campo17": "488F4214EA070AFF48452C06990F0F08",
          "campo18": "19:26:00",
          "campo19": "Evento 05"
     },
     {
          
          "campo01": "009",
          "campo02": "002",
          "campo03": "08:44:30",
          "campo04": "2020:04:18",
          "campo05": "002",
          "campo06": "490000",
          "campo07": "022414",
          "campo08": "52",
          "campo09": "R",
          "campo10": "00",
          "campo11": "0000",
          "campo12": "040",
          "campo13": "Operacion exitosa",
          "campo14": "840",
          "campo15": "48D55A904CF4F550190BEB23FB04B223",
          "campo16": "E122568D0F8AB40599C04449FBBD0DFD",
          "campo17": "9FBBD0AFF48955AC090DBF040CF89AAE",
          "campo18": "08:44:30",
          "campo19": "Evento 08"
     },
     {
          "campo01": "018",
          "campo02": "002",
          "campo03": "18:11:30",
          "campo04": "2020:04:17",
          "campo05": "005",
          "campo06": "490000",
          "campo07": "880151",
          "campo08": "51",
          "campo09": "R",
          "campo10": "40",
          "campo11": "4002",
          "campo12": "445",
          "campo13": "Latencia en servidor de Novatronic",
          "campo14": "840",
          "campo15": "0BEB23FB4023FBA90BEB23F55190BEB3",
          "campo16": "78E1B22568D0F8AB40599C0482320DFD",
          "campo17": "005492261B29FBD0AFF489A09DBF04AE",
          "campo18": "18:11:30",
          "campo19": "Evento 04"
     },
     {
          "campo01": "009",
          "campo02": "002",
          "campo03": "13:11:30",
          "campo04": "2020:04:16",
          "campo05": "005",
          "campo06": "490000",
          "campo07": "880151",
          "campo08": "51",
          "campo09": "R",
          "campo10": "40",
          "campo11": "4002",
          "campo12": "445",
          "campo13": "Latencia en servidor de Novatronic",
          "campo14": "604",
          "campo15": "0BEB23FB4023FBA90BEB23F55190BEB3",
          "campo16": "78E1B22568D0F8AB40599C0482320DFD",
          "campo17": "005492261B29FBD0AFF489A09DBF04AE",
          "campo18": "13:11:30",
          "campo19": "Evento 04"
     },
     {
          "campo01": "002",
          "campo02": "023",
          "campo03": "08:11:30",
          "campo04": "2020:04:15",
          "campo05": "005",
          "campo06": "490000",
          "campo07": "880151",
          "campo08": "51",
          "campo09": "E",
          "campo10": "40",
          "campo11": "4002",
          "campo12": "445",
          "campo13": "Latencia en servidor de Novatronic",
          "campo14": "840",
          "campo15": "0BEB23FB4023FBA90BEB23F55190BEB3",
          "campo16": "78E1B22568D0F8AB40599C0482320DFD",
          "campo17": "005492261B29FBD0AFF489A09DBF04AE",
          "campo18": "08:11:30",
          "campo19": "Evento 04"
     },
          {
          "campo01": "002",
          "campo02": "002",
          "campo03": "09:44:30",
          "campo04": "2020:04:21",
          "campo05": "001",
          "campo06": "800000",
          "campo07": "010101",
          "campo08": "02",
          "campo09": "E",
          "campo10": "00",
          "campo11": "0000",
          "campo12": "020",
          "campo13": "Operacion exitosa",
          "campo14": "604",
          "campo15": "23FB04B223FB04B223FB04B223FB04B2",
          "campo16": "56A0E156A0E13E3E5656A0E13EA0E13E",
          "campo17": "4EA070AFF489452C090D246700AF0F08",
          "campo18": "09:44:30",
          "campo19": "Evento 01"

     },
     {
          
          "campo01": "002",
          "campo02": "007",
          "campo03": "10:01:19",
          "campo04": "2020:04:20",
          "campo05": "002",
          "campo06": "490000",
          "campo07": "120422",
          "campo08": "04",
          "campo09": "E",
          "campo10": "00",
          "campo11": "0000",
          "campo12": "032",
          "campo13": "Operacion exitosa",
          "campo14": "604",
          "campo15": "4AF69EE6F214B96CC29E6F214B4B96CC",
          "campo16": "E6F214B96CC29E56A0E0E13E3E56513E",
          "campo17": "8944AF69EE6F214B9246700AF0F21408",
          "campo18": "10:01:19",
          "campo19": "Evento 02"
     },
     {
          
          "campo01": "002",
          "campo02": "009",
          "campo03": "19:26:00",
          "campo04": "2020:04:19",
          "campo05": "009",
          "campo06": "800000",
          "campo07": "050555",
          "campo08": "15",
          "campo09": "E",
          "campo10": "80",
          "campo11": "8001",
          "campo12": "020",
          "campo13": "Timeout en Banco Repector",
          "campo14": "604",
          "campo15": "F088F4214CFB04B49B22FB0423FB04B2",
          "campo16": "14CF11BA60E4416A0E813E83E5134E8A",
          "campo17": "488F4214EA070AFF48452C06990F0F08",
          "campo18": "19:26:00",
          "campo19": "Evento 05"
     },
     {
          
          "campo01": "009",
          "campo02": "002",
          "campo03": "08:44:30",
          "campo04": "2020:04:18",
          "campo05": "002",
          "campo06": "490000",
          "campo07": "022414",
          "campo08": "52",
          "campo09": "R",
          "campo10": "00",
          "campo11": "0000",
          "campo12": "040",
          "campo13": "Operacion exitosa",
          "campo14": "840",
          "campo15": "48D55A904CF4F550190BEB23FB04B223",
          "campo16": "E122568D0F8AB40599C04449FBBD0DFD",
          "campo17": "9FBBD0AFF48955AC090DBF040CF89AAE",
          "campo18": "08:44:30",
          "campo19": "Evento 08"
     },
     {
          "campo01": "018",
          "campo02": "002",
          "campo03": "18:11:30",
          "campo04": "2020:04:17",
          "campo05": "005",
          "campo06": "490000",
          "campo07": "880151",
          "campo08": "51",
          "campo09": "R",
          "campo10": "40",
          "campo11": "4002",
          "campo12": "445",
          "campo13": "Latencia en servidor de Novatronic",
          "campo14": "840",
          "campo15": "0BEB23FB4023FBA90BEB23F55190BEB3",
          "campo16": "78E1B22568D0F8AB40599C0482320DFD",
          "campo17": "005492261B29FBD0AFF489A09DBF04AE",
          "campo18": "18:11:30",
          "campo19": "Evento 04"
     },
     {
          "campo01": "009",
          "campo02": "002",
          "campo03": "13:11:30",
          "campo04": "2020:04:16",
          "campo05": "005",
          "campo06": "490000",
          "campo07": "880151",
          "campo08": "51",
          "campo09": "R",
          "campo10": "40",
          "campo11": "4002",
          "campo12": "445",
          "campo13": "Latencia en servidor de Novatronic",
          "campo14": "604",
          "campo15": "0BEB23FB4023FBA90BEB23F55190BEB3",
          "campo16": "78E1B22568D0F8AB40599C0482320DFD",
          "campo17": "005492261B29FBD0AFF489A09DBF04AE",
          "campo18": "13:11:30",
          "campo19": "Evento 04"
     },
     {
          "campo01": "002",
          "campo02": "023",
          "campo03": "08:11:30",
          "campo04": "2020:04:15",
          "campo05": "005",
          "campo06": "490000",
          "campo07": "880151",
          "campo08": "51",
          "campo09": "E",
          "campo10": "40",
          "campo11": "4002",
          "campo12": "445",
          "campo13": "Latencia en servidor de Novatronic",
          "campo14": "840",
          "campo15": "0BEB23FB4023FBA90BEB23F55190BEB3",
          "campo16": "78E1B22568D0F8AB40599C0482320DFD",
          "campo17": "005492261B29FBD0AFF489A09DBF04AE",
          "campo18": "08:11:30",
          "campo19": "Evento 04"
     },
          {
          "campo01": "002",
          "campo02": "002",
          "campo03": "09:44:30",
          "campo04": "2020:04:21",
          "campo05": "001",
          "campo06": "800000",
          "campo07": "010101",
          "campo08": "02",
          "campo09": "E",
          "campo10": "00",
          "campo11": "0000",
          "campo12": "020",
          "campo13": "Operacion exitosa",
          "campo14": "604",
          "campo15": "23FB04B223FB04B223FB04B223FB04B2",
          "campo16": "56A0E156A0E13E3E5656A0E13EA0E13E",
          "campo17": "4EA070AFF489452C090D246700AF0F08",
          "campo18": "09:44:30",
          "campo19": "Evento 01"

     },
     {
          
          "campo01": "002",
          "campo02": "007",
          "campo03": "10:01:19",
          "campo04": "2020:04:20",
          "campo05": "002",
          "campo06": "490000",
          "campo07": "120422",
          "campo08": "04",
          "campo09": "E",
          "campo10": "00",
          "campo11": "0000",
          "campo12": "032",
          "campo13": "Operacion exitosa",
          "campo14": "604",
          "campo15": "4AF69EE6F214B96CC29E6F214B4B96CC",
          "campo16": "E6F214B96CC29E56A0E0E13E3E56513E",
          "campo17": "8944AF69EE6F214B9246700AF0F21408",
          "campo18": "10:01:19",
          "campo19": "Evento 02"
     },
     {
          
          "campo01": "002",
          "campo02": "009",
          "campo03": "19:26:00",
          "campo04": "2020:04:19",
          "campo05": "009",
          "campo06": "800000",
          "campo07": "050555",
          "campo08": "15",
          "campo09": "E",
          "campo10": "80",
          "campo11": "8001",
          "campo12": "020",
          "campo13": "Timeout en Banco Repector",
          "campo14": "604",
          "campo15": "F088F4214CFB04B49B22FB0423FB04B2",
          "campo16": "14CF11BA60E4416A0E813E83E5134E8A",
          "campo17": "488F4214EA070AFF48452C06990F0F08",
          "campo18": "19:26:00",
          "campo19": "Evento 05"
     },
     {
          
          "campo01": "009",
          "campo02": "002",
          "campo03": "08:44:30",
          "campo04": "2020:04:18",
          "campo05": "002",
          "campo06": "490000",
          "campo07": "022414",
          "campo08": "52",
          "campo09": "R",
          "campo10": "00",
          "campo11": "0000",
          "campo12": "040",
          "campo13": "Operacion exitosa",
          "campo14": "840",
          "campo15": "48D55A904CF4F550190BEB23FB04B223",
          "campo16": "E122568D0F8AB40599C04449FBBD0DFD",
          "campo17": "9FBBD0AFF48955AC090DBF040CF89AAE",
          "campo18": "08:44:30",
          "campo19": "Evento 08"
     },
     {
          "campo01": "018",
          "campo02": "002",
          "campo03": "18:11:30",
          "campo04": "2020:04:17",
          "campo05": "005",
          "campo06": "490000",
          "campo07": "880151",
          "campo08": "51",
          "campo09": "R",
          "campo10": "40",
          "campo11": "4002",
          "campo12": "445",
          "campo13": "Latencia en servidor de Novatronic",
          "campo14": "840",
          "campo15": "0BEB23FB4023FBA90BEB23F55190BEB3",
          "campo16": "78E1B22568D0F8AB40599C0482320DFD",
          "campo17": "005492261B29FBD0AFF489A09DBF04AE",
          "campo18": "18:11:30",
          "campo19": "Evento 04"
     },
     {
          "campo01": "009",
          "campo02": "002",
          "campo03": "13:11:30",
          "campo04": "2020:04:16",
          "campo05": "005",
          "campo06": "490000",
          "campo07": "880151",
          "campo08": "51",
          "campo09": "R",
          "campo10": "40",
          "campo11": "4002",
          "campo12": "445",
          "campo13": "Latencia en servidor de Novatronic",
          "campo14": "604",
          "campo15": "0BEB23FB4023FBA90BEB23F55190BEB3",
          "campo16": "78E1B22568D0F8AB40599C0482320DFD",
          "campo17": "005492261B29FBD0AFF489A09DBF04AE",
          "campo18": "13:11:30",
          "campo19": "Evento 04"
     },
     {
          "campo01": "002",
          "campo02": "023",
          "campo03": "08:11:30",
          "campo04": "2020:04:15",
          "campo05": "005",
          "campo06": "490000",
          "campo07": "880151",
          "campo08": "51",
          "campo09": "E",
          "campo10": "40",
          "campo11": "4002",
          "campo12": "445",
          "campo13": "Latencia en servidor de Novatronic",
          "campo14": "840",
          "campo15": "0BEB23FB4023FBA90BEB23F55190BEB3",
          "campo16": "78E1B22568D0F8AB40599C0482320DFD",
          "campo17": "005492261B29FBD0AFF489A09DBF04AE",
          "campo18": "08:11:30",
          "campo19": "Evento 04"
     },
          {
          "campo01": "002",
          "campo02": "002",
          "campo03": "09:44:30",
          "campo04": "2020:04:21",
          "campo05": "001",
          "campo06": "800000",
          "campo07": "010101",
          "campo08": "02",
          "campo09": "E",
          "campo10": "00",
          "campo11": "0000",
          "campo12": "020",
          "campo13": "Operacion exitosa",
          "campo14": "604",
          "campo15": "23FB04B223FB04B223FB04B223FB04B2",
          "campo16": "56A0E156A0E13E3E5656A0E13EA0E13E",
          "campo17": "4EA070AFF489452C090D246700AF0F08",
          "campo18": "09:44:30",
          "campo19": "Evento 01"

     },
     {
          
          "campo01": "002",
          "campo02": "007",
          "campo03": "10:01:19",
          "campo04": "2020:04:20",
          "campo05": "002",
          "campo06": "490000",
          "campo07": "120422",
          "campo08": "04",
          "campo09": "E",
          "campo10": "00",
          "campo11": "0000",
          "campo12": "032",
          "campo13": "Operacion exitosa",
          "campo14": "604",
          "campo15": "4AF69EE6F214B96CC29E6F214B4B96CC",
          "campo16": "E6F214B96CC29E56A0E0E13E3E56513E",
          "campo17": "8944AF69EE6F214B9246700AF0F21408",
          "campo18": "10:01:19",
          "campo19": "Evento 02"
     },
     {
          
          "campo01": "002",
          "campo02": "009",
          "campo03": "19:26:00",
          "campo04": "2020:04:19",
          "campo05": "009",
          "campo06": "800000",
          "campo07": "050555",
          "campo08": "15",
          "campo09": "E",
          "campo10": "80",
          "campo11": "8001",
          "campo12": "020",
          "campo13": "Timeout en Banco Repector",
          "campo14": "604",
          "campo15": "F088F4214CFB04B49B22FB0423FB04B2",
          "campo16": "14CF11BA60E4416A0E813E83E5134E8A",
          "campo17": "488F4214EA070AFF48452C06990F0F08",
          "campo18": "19:26:00",
          "campo19": "Evento 05"
     },
     {
          
          "campo01": "009",
          "campo02": "002",
          "campo03": "08:44:30",
          "campo04": "2020:04:18",
          "campo05": "002",
          "campo06": "490000",
          "campo07": "022414",
          "campo08": "52",
          "campo09": "R",
          "campo10": "00",
          "campo11": "0000",
          "campo12": "040",
          "campo13": "Operacion exitosa",
          "campo14": "840",
          "campo15": "48D55A904CF4F550190BEB23FB04B223",
          "campo16": "E122568D0F8AB40599C04449FBBD0DFD",
          "campo17": "9FBBD0AFF48955AC090DBF040CF89AAE",
          "campo18": "08:44:30",
          "campo19": "Evento 08"
     },
     {
          "campo01": "018",
          "campo02": "002",
          "campo03": "18:11:30",
          "campo04": "2020:04:17",
          "campo05": "005",
          "campo06": "490000",
          "campo07": "880151",
          "campo08": "51",
          "campo09": "R",
          "campo10": "40",
          "campo11": "4002",
          "campo12": "445",
          "campo13": "Latencia en servidor de Novatronic",
          "campo14": "840",
          "campo15": "0BEB23FB4023FBA90BEB23F55190BEB3",
          "campo16": "78E1B22568D0F8AB40599C0482320DFD",
          "campo17": "005492261B29FBD0AFF489A09DBF04AE",
          "campo18": "18:11:30",
          "campo19": "Evento 04"
     },
     {
          "campo01": "009",
          "campo02": "002",
          "campo03": "13:11:30",
          "campo04": "2020:04:16",
          "campo05": "005",
          "campo06": "490000",
          "campo07": "880151",
          "campo08": "51",
          "campo09": "R",
          "campo10": "40",
          "campo11": "4002",
          "campo12": "445",
          "campo13": "Latencia en servidor de Novatronic",
          "campo14": "604",
          "campo15": "0BEB23FB4023FBA90BEB23F55190BEB3",
          "campo16": "78E1B22568D0F8AB40599C0482320DFD",
          "campo17": "005492261B29FBD0AFF489A09DBF04AE",
          "campo18": "13:11:30",
          "campo19": "Evento 04"
     },
     {
          "campo01": "002",
          "campo02": "023",
          "campo03": "08:11:30",
          "campo04": "2020:04:15",
          "campo05": "005",
          "campo06": "490000",
          "campo07": "880151",
          "campo08": "51",
          "campo09": "E",
          "campo10": "40",
          "campo11": "4002",
          "campo12": "445",
          "campo13": "Latencia en servidor de Novatronic",
          "campo14": "840",
          "campo15": "0BEB23FB4023FBA90BEB23F55190BEB3",
          "campo16": "78E1B22568D0F8AB40599C0482320DFD",
          "campo17": "005492261B29FBD0AFF489A09DBF04AE",
          "campo18": "08:11:30",
          "campo19": "Evento 04"
     }
]