[
     {    
          "campo01": "604",
          "campo02": "Soles",
          "campo03": "S/",
          "campo04": "ACTIVO"
     },
     {    
          "campo01": "840",
          "campo02": "Dolares",
          "campo03": "$",
          "campo04": "ACTIVO"
     }
]
